{

  "google" : {
    "url"  : "https://www.google.co.in/search?q={query}&source=lnms&tbm=isch",
    "selector" : ".rg_bx.rg_di.rg_el.ivg-i .rg_meta",
    "attr" : "ou",
    "trial" : 30,
    "next_btn" : "#smb",

    "required": false
  },

  "naver" : {
    "url"  : "https://search.naver.com/search.naver?where=image&sm=tab_jum&query={query}",
    "selector" : ".img_area._item ._meta",
    "attr" : "originalUrl",
    "trial" : 15,
    "next_btn" : "a.btn_more._more",

    "required": false
  },


  "bing":{
    "url" : "https://www.bing.com/images/search?q={query}",
    "selector" : ".imgpt>.iusc",
    "meta" : "m",
    "attr" : "murl",
    "trial" : 30,
    "next_btn" : "",

    "required": false
  }

}

